<svg width="22" height="22" viewBox="0 0 22 22" fill="none" xmlns="http://www.w3.org/2000/svg">
<path fill-rule="evenodd" clip-rule="evenodd" d="M20.6361 18.1362L16.0406 13.5407C16.0162 13.5163 15.9875 13.4992 15.962 13.4765C16.8662 12.1048 17.394 10.4628 17.394 8.69708C17.394 3.89379 13.5002 0 8.697 0C3.89379 0 0 3.89379 0 8.697C0 13.5001 3.89371 17.394 8.69692 17.394C10.4628 17.394 12.1046 16.8662 13.4763 15.962C13.499 15.9874 13.516 16.0161 13.5404 16.0405L18.1361 20.6361C18.8264 21.3264 19.9457 21.3264 20.6361 20.6361C21.3264 19.9458 21.3264 18.8265 20.6361 18.1362ZM8.697 14.379C5.55881 14.379 3.01489 11.8351 3.01489 8.697C3.01489 5.55881 5.55889 3.01489 8.697 3.01489C11.835 3.01489 14.379 5.55889 14.379 8.697C14.379 11.8351 11.835 14.379 8.697 14.379Z" fill="white"/>
</svg>
