<svg width="23" height="23" viewBox="0 0 23 23" fill="none" xmlns="http://www.w3.org/2000/svg">
<path d="M19.8485 18.6923V11.7692C19.8485 7.51152 17.5847 3.95998 13.6177 3.01842V2.07692C13.6177 0.927671 12.6901 0 11.5408 0C10.3916 0 9.46389 0.927671 9.46389 2.07692V3.01848C5.49697 3.96004 3.23312 7.51158 3.23312 11.7693V18.6923L0.463867 21.4616V22.8462H22.6177V21.4616L19.8485 18.6923Z" fill="#606060"/>
</svg>
